<?xml version="1.0" standalone="no"?>
<!DOCTYPE svg PUBLIC "-//W3C//DTD SVG 20010904//EN"
 "http://www.w3.org/TR/2001/REC-SVG-20010904/DTD/svg10.dtd">
<svg version="1.0" xmlns="http://www.w3.org/2000/svg"
 width="16.000000pt" height="16.000000pt" viewBox="0 0 16.000000 16.000000"
 preserveAspectRatio="xMidYMid meet">
<metadata>
Created by potrace 1.11, written by Peter Selinger 2001-2013
</metadata>
<g transform="translate(0.000000,16.000000) scale(0.006154,-0.006154)"
fill="#000000" stroke="none">
<path d="M645 2189 c-27 -6 -87 -28 -133 -50 -206 -99 -315 -306 -299 -569 15
-240 129 -411 483 -729 84 -75 256 -234 384 -354 l232 -218 46 42 c26 24 146
136 267 249 121 113 281 260 355 327 233 208 348 357 405 526 21 64 25 93 25
194 0 137 -16 216 -61 305 -38 75 -142 181 -216 221 -117 62 -316 85 -448 52
-100 -25 -219 -91 -299 -166 l-73 -68 -62 60 c-73 69 -170 129 -261 160 -75
25 -259 35 -345 18z"/>
</g>
</svg>
